…
It's definitely faster, but it seems we have some errors. Let's inspect them. 


```r
problems(multiple_choice_responses)
```

```
## # A tibble: 31 x 5
##      row                           col               expected actual
##    <int>                         <chr>                  <chr>  <chr>
##  1  1344 LearningCategoryOnlineCourses no trailing characters     .5
##  2  2509             TimeModelBuilding no trailing characters     .5
##  3  2509               TimeVisualizing no trailing characters     .5
##  4  3236   LearningCategorySelftTaught no trailing characters     .5
##  5  3236 LearningCategoryOnlineCourses no trailing characters     .5
##  6  3579               TimeVisualizing no trailing characters     .5
##  7  3579           TimeFindingInsights no trailing characters     .5
##  8  4019   LearningCategorySelftTaught no trailing characters     .5
##  9  4019          LearningCategoryWork no trailing characters     .5
## 10  4164                TimeProduction no trailing characters     .5
## # ... with 21 more rows, and 1 more variables: file <chr>
```
…
This data would be more helpful if it was tidy and had two columns, `question` and `num_distinct_answers`. We can use `tidyr::gather` to change our data from "wide" to "long" format and then `arrange` it so we can see the columns with the most distinct answers first. If you've used (or are still using!) reshape2, check out tidyr; reshape2 is retired. While not exactly equivalent, `tidyr::spread` replaces `reshape2::dcast`, `tidyr::separate` `reshape2::colsplit`, and `tidyr::gather` `reshape2::melt`. 


```r
multiple_choice_responses %>%
  purrr::map_df(~n_distinct(.)) %>%
  tidyr::gather(question, num_distinct_answers) %>%
  arrange(desc(num_distinct_answers))
```

```
## # A tibble: 228 x 2
##                  question num_distinct_answers
##                     <chr>                <int>
##  1      WorkMethodsSelect                 6191
##  2 LearningPlatformSelect                 5363
##  3        WorkToolsSelect                 5249
##  4   WorkChallengesSelect                 4288
##  5  WorkDatasetsChallenge                 2221
##  6    PastJobTitlesSelect                 1856
##  7     MLTechniquesSelect                 1802
##  8           WorkDatasets                 1724
##  9   WorkAlgorithmsSelect                 1421
## 10         MLSkillsSelect                 1038
## # ... with 218 more rows
```

Let's take a look at the question with the most distinct answers. 


```r
multiple_choice_responses %>%
  count(WorkMethodsSelect, sort = TRUE)
```

```
## # A tibble: 6,191 x 2
##                          WorkMethodsSelect     n
##                                      <chr> <int>
##  1                                    <NA>  8943
##  2                      Data Visualization   144
##  3                                   Other   144
##  4                     Logistic Regression    66
##  5                    Time Series Analysis    49
##  6                         Neural Networks    45
##  7                             A/B Testing    42
##  8 Data Visualization,Time Series Analysis    37
##  9                          Text Analytics    36
## 10                          Decision Trees    29
## # ... with 6,181 more rows
```
…
`!` here is short for `== FALSE`. So `!is.na(WorkMethodsSelect)` is the same as `is.na(WorkMethodsSelect) == FALSE`. `str_split` says "Take this string and split it into a list by dividing it where there are `,`s." 


```r
nested_workmethods <- multiple_choice_responses %>%
  select(WorkMethodsSelect) %>%
  filter(!is.na(WorkMethodsSelect)) %>%
  mutate(work_method = str_split(WorkMethodsSelect, ",")) 

nested_workmethods
```

```
## # A tibble: 7,773 x 2
##                                                              WorkMethodsSelect
##                                                                          <chr>
##  1 Association Rules,Collaborative Filtering,Neural Networks,PCA and Dimension
##  2 A/B Testing,Bayesian Techniques,Data Visualization,Decision Trees,Ensemble 
##  3 Association Rules,Bayesian Techniques,CNNs,Collaborative Filtering,Data Vis
##  4 Association Rules,Bayesian Techniques,CNNs,Cross-Validation,Data Visualizat
##  5 A/B Testing,Cross-Validation,Data Visualization,Decision Trees,kNN and Othe
##  6                                                          Data Visualization
##  7 A/B Testing,Association Rules,CNNs,Cross-Validation,Data Visualization,Deci
##  8 Bayesian Techniques,Collaborative Filtering,Data Visualization,HMMs,kNN and
##  9 Cross-Validation,Data Visualization,Decision Trees,Ensemble Methods,Gradien
## 10   A/B Testing,Bayesian Techniques,Decision Trees,Naive Bayes,Random Forests
## # ... with 7,763 more rows, and 1 more variables: work_method <list>
```

Now we have a list column, with each entry in the list being one work method. We can unnest this so we can get back a tidy dataframe. 


```r
unnested_workmethods <- nested_workmethods %>%
  unnest(work_method) %>%
  select(work_method)

unnested_workmethods
```

```
## # A tibble: 59,497 x 1
##                         work_method
##                               <chr>
##  1                Association Rules
##  2          Collaborative Filtering
##  3                  Neural Networks
##  4 PCA and Dimensionality Reduction
##  5                   Random Forests
##  6                      A/B Testing
##  7              Bayesian Techniques
##  8               Data Visualization
##  9                   Decision Trees
## 10                 Ensemble Methods
## # ... with 59,487 more rows
```
…
